module trac_test

go 1.18

require (
	github.com/beorn7/perks v1.0.1 // indirect
	github.com/cespare/xxhash/v2 v2.1.2 // indirect
	github.com/golang/protobuf v1.5.2 // indirect
	github.com/matttproud/golang_protobuf_extensions v1.0.1 // indirect
	github.com/prometheus/client_golang v1.12.2 // indirect
	github.com/prometheus/client_model v0.2.0 // indirect
	github.com/prometheus/common v0.35.0 // indirect
	github.com/prometheus/procfs v0.7.3 // indirect
	golang.org/x/sys v0.0.0-20220702020025-31831981b65f // indirect
	google.golang.org/protobuf v1.28.0 // indirect
)
